-------------------------------------------------------------------------------
Test set: com.qa.onlineshopping.LoginTest
-------------------------------------------------------------------------------
Tests run: 1, Failures: 1, Errors: 0, Skipped: 0, Time elapsed: 0.812 sec <<< FAILURE! - in com.qa.onlineshopping.LoginTest
login(com.qa.onlineshopping.LoginTest)  Time elapsed: 0.075 sec  <<< FAILURE!
java.lang.IllegalStateException: The path to the driver executable must be set by the webdriver.chrome.driver system property; for more information, see https://github.com/SeleniumHQ/selenium/wiki/ChromeDriver. The latest version can be downloaded from http://chromedriver.storage.googleapis.com/index.html
	at com.qa.onlineshopping.LoginTest.login(LoginTest.java:26)

